module bitbucket.org/cocoon/ckproxy

go 1.16

require (
	github.com/dgrijalva/jwt-go v3.2.0+incompatible // indirect
	github.com/labstack/echo v3.3.10+incompatible
	github.com/labstack/gommon v0.3.0 // indirect
	github.com/mattn/go-colorable v0.1.7 // indirect
	github.com/valyala/fasttemplate v1.2.1 // indirect
	golang.org/x/crypto v0.0.0-20200820211705-5c72a883971a // indirect
	golang.org/x/net v0.0.0-20200822124328-c89045814202 // indirect
	golang.org/x/sys v0.0.0-20200826173525-f9321e4c35a6 // indirect
	golang.org/x/text v0.3.3 // indirect
)
